multicycle/tb (1).vcd
$date
	Mon Jun 26 09:19:48 2023
$end
$version
	Icarus Verilog
$end
$timescale
	1s
$end
$scope module testbench $end
$var wire 32 ! WriteData [31:0] $end
$var wire 1 " MemWrite $end
$var wire 32 # DataAdr [31:0] $end
$var reg 1 $ clk $end
$var reg 1 % reset $end
$scope module dut $end
$var wire 1 $ clk $end
$var wire 1 % reset $end
$var wire 32 & WriteData [31:0] $end
$var wire 32 ' ReadData [31:0] $end
$var wire 1 " MemWrite $end
$var wire 32 ( Adr [31:0] $end
$scope module arm $end
$var wire 1 $ clk $end
$var wire 1 % reset $end
$var wire 32 ) WriteData [31:0] $end
$var wire 2 * ResultSrc [1:0] $end
$var wire 1 + RegWrite $end
$var wire 2 , RegSrc [1:0] $end
$var wire 32 - ReadData [31:0] $end
$var wire 1 . PCWrite $end
$var wire 1 " MemWrite $end
$var wire 32 / Instr [31:0] $end
$var wire 2 0 ImmSrc [1:0] $end
$var wire 1 1 IRWrite $end
$var wire 1 2 AdrSrc $end
$var wire 32 3 Adr [31:0] $end
$var wire 2 4 ALUSrcB [1:0] $end
$var wire 1 5 ALUSrcA $end
$var wire 4 6 ALUFlags [3:0] $end
$var wire 2 7 ALUControl [1:0] $end
$scope module c $end
$var wire 20 8 Instr [31:12] $end
$var wire 1 $ clk $end
$var wire 1 % reset $end
$var wire 2 9 ResultSrc [1:0] $end
$var wire 1 + RegWrite $end
$var wire 1 : RegW $end
$var wire 2 ; RegSrc [1:0] $end
$var wire 1 . PCWrite $end
$var wire 1 < PCS $end
$var wire 1 = NextPC $end
$var wire 1 " MemWrite $end
$var wire 1 > MemW $end
$var wire 2 ? ImmSrc [1:0] $end
$var wire 1 1 IRWrite $end
$var wire 2 @ FlagW [1:0] $end
$var wire 1 2 AdrSrc $end
$var wire 2 A ALUSrcB [1:0] $end
$var wire 1 5 ALUSrcA $end
$var wire 4 B ALUFlags [3:0] $end
$var wire 2 C ALUControl [1:0] $end
$scope module cl $end
$var wire 4 D Cond [3:0] $end
$var wire 2 E FlagWrite [1:0] $end
$var wire 1 " MemWrite $end
$var wire 1 . PCWrite $end
$var wire 1 + RegWrite $end
$var wire 1 $ clk $end
$var wire 1 % reset $end
$var wire 1 F condsal $end
$var wire 1 : RegW $end
$var wire 1 < PCS $end
$var wire 1 = NextPC $end
$var wire 1 > MemW $end
$var wire 4 G Flags [3:0] $end
$var wire 2 H FlagW [1:0] $end
$var wire 1 I CondEx $end
$var wire 4 J ALUFlags [3:0] $end
$scope module cc $end
$var wire 4 K Cond [3:0] $end
$var wire 4 L Flags [3:0] $end
$var wire 1 M ge $end
$var wire 1 N zero $end
$var wire 1 O overflow $end
$var wire 1 P neg $end
$var wire 1 Q carry $end
$var reg 1 I CondEx $end
$upscope $end
$scope module condreg $end
$var wire 1 $ clk $end
$var wire 1 I d $end
$var wire 1 % reset $end
$var parameter 32 R WIDTH $end
$var reg 1 F q $end
$upscope $end
$scope module flagreg1 $end
$var wire 1 $ clk $end
$var wire 2 S d [1:0] $end
$var wire 1 T en $end
$var wire 1 % reset $end
$var parameter 32 U WIDTH $end
$var reg 2 V q [1:0] $end
$upscope $end
$scope module flagreg2 $end
$var wire 1 $ clk $end
$var wire 2 W d [1:0] $end
$var wire 1 X en $end
$var wire 1 % reset $end
$var parameter 32 Y WIDTH $end
$var reg 2 Z q [1:0] $end
$upscope $end
$upscope $end
$scope module dec $end
$var wire 6 [ Funct [5:0] $end
$var wire 2 \ ImmSrc [1:0] $end
$var wire 2 ] Op [1:0] $end
$var wire 1 < PCS $end
$var wire 4 ^ Rd [3:0] $end
$var wire 1 $ clk $end
$var wire 1 % reset $end
$var wire 2 _ ResultSrc [1:0] $end
$var wire 1 : RegW $end
$var wire 2 ` RegSrc [1:0] $end
$var wire 1 = NextPC $end
$var wire 1 > MemW $end
$var wire 1 1 IRWrite $end
$var wire 1 a Branch $end
$var wire 1 2 AdrSrc $end
$var wire 2 b ALUSrcB [1:0] $end
$var wire 1 5 ALUSrcA $end
$var wire 1 c ALUOp $end
$var reg 2 d ALUControl [1:0] $end
$var reg 2 e FlagW [1:0] $end
$scope module fsm $end
$var wire 6 f Funct [5:0] $end
$var wire 2 g Op [1:0] $end
$var wire 1 $ clk $end
$var wire 1 % reset $end
$var wire 2 h ResultSrc [1:0] $end
$var wire 1 : RegW $end
$var wire 1 = NextPC $end
$var wire 1 > MemW $end
$var wire 1 1 IRWrite $end
$var wire 1 a Branch $end
$var wire 1 2 AdrSrc $end
$var wire 2 i ALUSrcB [1:0] $end
$var wire 1 5 ALUSrcA $end
$var wire 1 c ALUOp $end
$var parameter 4 j ALUWB $end
$var parameter 4 k BRANCH $end
$var parameter 4 l DECODE $end
$var parameter 4 m EXECUTEI $end
$var parameter 4 n EXECUTER $end
$var parameter 4 o FETCH $end
$var parameter 4 p MEMADR $end
$var parameter 4 q MEMRD $end
$var parameter 4 r MEMWB $end
$var parameter 4 s MEMWR $end
$var parameter 4 t UNKNOWN $end
$var reg 12 u controls [11:0] $end
$var reg 4 v nextstate [3:0] $end
$var reg 4 w state [3:0] $end
$upscope $end
$upscope $end
$upscope $end
$scope module dp $end
$var wire 2 x ALUControl [1:0] $end
$var wire 1 5 ALUSrcA $end
$var wire 2 y ALUSrcB [1:0] $end
$var wire 1 2 AdrSrc $end
$var wire 1 1 IRWrite $end
$var wire 2 z ImmSrc [1:0] $end
$var wire 1 . PCWrite $end
$var wire 2 { RegSrc [1:0] $end
$var wire 1 + RegWrite $end
$var wire 2 | ResultSrc [1:0] $end
$var wire 1 $ clk $end
$var wire 1 % reset $end
$var wire 32 } WriteData [31:0] $end
$var wire 32 ~ SrcB [31:0] $end
$var wire 32 !" SrcA [31:0] $end
$var wire 32 "" Result [31:0] $end
$var wire 32 #" ReadData [31:0] $end
$var wire 32 $" RD2 [31:0] $end
$var wire 32 %" RD1 [31:0] $end
$var wire 4 &" RA2 [3:0] $end
$var wire 4 '" RA1 [3:0] $end
$var wire 32 (" PC [31:0] $end
$var wire 32 )" Instr [31:0] $end
$var wire 32 *" ExtImm [31:0] $end
$var wire 32 +" Data [31:0] $end
$var wire 32 ," Adr [31:0] $end
$var wire 32 -" ALUResult [31:0] $end
$var wire 32 ." ALUOut [31:0] $end
$var wire 4 /" ALUFlags [3:0] $end
$var wire 32 0" A [31:0] $end
$scope module RD1reg $end
$var wire 1 $ clk $end
$var wire 1 % reset $end
$var wire 32 1" d [31:0] $end
$var parameter 32 2" WIDTH $end
$var reg 32 3" q [31:0] $end
$upscope $end
$scope module RD2reg $end
$var wire 1 $ clk $end
$var wire 1 % reset $end
$var wire 32 4" d [31:0] $end
$var parameter 32 5" WIDTH $end
$var reg 32 6" q [31:0] $end
$upscope $end
$scope module adrmux $end
$var wire 1 2 s $end
$var wire 32 7" y [31:0] $end
$var wire 32 8" d1 [31:0] $end
$var wire 32 9" d0 [31:0] $end
$var parameter 32 :" WIDTH $end
$upscope $end
$scope module alu $end
$var wire 2 ;" ALUControl [1:0] $end
$var wire 1 <" carry $end
$var wire 1 =" overflow $end
$var wire 1 >" zero $end
$var wire 33 ?" sum [32:0] $end
$var wire 1 @" neg $end
$var wire 32 A" condinvb [31:0] $end
$var wire 32 B" b [31:0] $end
$var wire 32 C" a [31:0] $end
$var wire 4 D" ALUFlags [3:0] $end
$var reg 32 E" Result [31:0] $end
$upscope $end
$scope module aluresultreg $end
$var wire 1 $ clk $end
$var wire 32 F" d [31:0] $end
$var wire 1 % reset $end
$var parameter 32 G" WIDTH $end
$var reg 32 H" q [31:0] $end
$upscope $end
$scope module datareg $end
$var wire 1 $ clk $end
$var wire 1 % reset $end
$var wire 32 I" d [31:0] $end
$var parameter 32 J" WIDTH $end
$var reg 32 K" q [31:0] $end
$upscope $end
$scope module ext $end
$var wire 2 L" ImmSrc [1:0] $end
$var wire 24 M" Instr [23:0] $end
$var reg 32 N" ExtImm [31:0] $end
$upscope $end
$scope module instrucreg $end
$var wire 1 $ clk $end
$var wire 1 1 en $end
$var wire 1 % reset $end
$var wire 32 O" d [31:0] $end
$var parameter 32 P" WIDTH $end
$var reg 32 Q" q [31:0] $end
$upscope $end
$scope module pcreg $end
$var wire 1 $ clk $end
$var wire 1 . en $end
$var wire 1 % reset $end
$var wire 32 R" d [31:0] $end
$var parameter 32 S" WIDTH $end
$var reg 32 T" q [31:0] $end
$upscope $end
$scope module ra1mux $end
$var wire 4 U" d0 [3:0] $end
$var wire 4 V" d1 [3:0] $end
$var wire 1 W" s $end
$var wire 4 X" y [3:0] $end
$var parameter 32 Y" WIDTH $end
$upscope $end
$scope module ra2mux $end
$var wire 4 Z" d0 [3:0] $end
$var wire 4 [" d1 [3:0] $end
$var wire 1 \" s $end
$var wire 4 ]" y [3:0] $end
$var parameter 32 ^" WIDTH $end
$upscope $end
$scope module resultmux $end
$var wire 32 _" d0 [31:0] $end
$var wire 32 `" d1 [31:0] $end
$var wire 32 a" d2 [31:0] $end
$var wire 2 b" s [1:0] $end
$var wire 32 c" y [31:0] $end
$var parameter 32 d" WIDTH $end
$upscope $end
$scope module rf $end
$var wire 1 $ clk $end
$var wire 32 e" r15 [31:0] $end
$var wire 4 f" ra1 [3:0] $end
$var wire 4 g" ra2 [3:0] $end
$var wire 4 h" wa3 [3:0] $end
$var wire 32 i" wd3 [31:0] $end
$var wire 1 + we3 $end
$var wire 32 j" rd2 [31:0] $end
$var wire 32 k" rd1 [31:0] $end
$upscope $end
$scope module srcAalumux $end
$var wire 32 l" d0 [31:0] $end
$var wire 32 m" d1 [31:0] $end
$var wire 1 5 s $end
$var wire 32 n" y [31:0] $end
$var parameter 32 o" WIDTH $end
$upscope $end
$scope module srcBalumux $end
$var wire 32 p" d0 [31:0] $end
$var wire 32 q" d1 [31:0] $end
$var wire 32 r" d2 [31:0] $end
$var wire 2 s" s [1:0] $end
$var wire 32 t" y [31:0] $end
$var parameter 32 u" WIDTH $end
$upscope $end
$upscope $end
$upscope $end
$scope module mem $end
$var wire 32 v" a [31:0] $end
$var wire 1 $ clk $end
$var wire 32 w" rd [31:0] $end
$var wire 32 x" wd [31:0] $end
$var wire 1 " we $end
$upscope $end
$upscope $end
$upscope $end
$enddefinitions $end
$comment Show the parameter values. $end
$dumpall
b100000 u"
b100000 o"
b100000 d"
b100 ^"
b100 Y"
b100000 S"
b100000 P"
b100000 J"
b100000 G"
b100000 :"
b100000 5"
b100000 2"
b1010 t
b101 s
b100 r
b11 q
b10 p
b0 o
b110 n
b111 m
b1 l
b1001 k
b1000 j
b10 Y
b10 U
b1 R
$end
#0
$dumpvars
b0 x"
b11100000010011110000000000001111 w"
b0 v"
b100 t"
b10 s"
b100 r"
b0 q"
b0 p"
b0 n"
b0 m"
b0 l"
bx k"
bx j"
b100 i"
b0 h"
b0 g"
b0 f"
b100 e"
b100 c"
b10 b"
b100 a"
b0 `"
b0 _"
b0 ]"
0\"
b0 ["
b0 Z"
b0 X"
0W"
b1111 V"
b0 U"
b0 T"
b100 R"
b0 Q"
b11100000010011110000000000001111 O"
b0 N"
b0 M"
b0 L"
b0 K"
b11100000010011110000000000001111 I"
b0 H"
b100 F"
b100 E"
b0 D"
b0 C"
b100 B"
b100 A"
0@"
b100 ?"
0>"
0="
0<"
b0 ;"
b0 9"
b100 8"
b0 7"
b0 6"
bx 4"
b0 3"
bx 1"
b0 0"
b0 /"
b0 ."
b100 -"
b0 ,"
b0 +"
b0 *"
b0 )"
b0 ("
b0 '"
b0 &"
bx %"
bx $"
b11100000010011110000000000001111 #"
b100 ""
b0 !"
b100 ~
b0 }
b10 |
b0 {
b0 z
b10 y
b0 x
b0 w
b1 v
b100010101100 u
b10 i
b10 h
b0 g
b0 f
b0 e
b0 d
0c
b10 b
0a
b0 `
b10 _
b0 ^
b0 ]
b0 \
b0 [
b0 Z
0X
b0 W
b0 V
0T
b0 S
0Q
0P
0O
0N
1M
b0 L
b0 K
b0 J
0I
b0 H
b0 G
0F
b0 E
b0 D
b0 C
b0 B
b10 A
b0 @
b0 ?
0>
1=
0<
b0 ;
0:
b10 9
b0 8
b0 7
b0 6
15
b10 4
b0 3
02
11
b0 0
b0 /
1.
b11100000010011110000000000001111 -
b0 ,
0+
b10 *
b0 )
b0 (
b11100000010011110000000000001111 '
b0 &
1%
1$
b0 #
0"
b0 !
$end
#5
0$
#10
1$
#15
0$
#20
1$
#22
0%
#25
0$
#30
b1000 $"
b1000 4"
b1000 j"
b1000 %"
b1000 1"
b1000 k"
1I
b1000 ""
b1000 8"
b1000 R"
b1000 c"
b1000 e"
b1000 i"
0.
b1111 *"
b1111 N"
b1111 q"
b1111 &"
b1111 ]"
b1111 g"
b1111 '"
b1111 X"
b1111 f"
b100 [
b100 f
b1110 D
b1110 K
b1000 -"
b1000 E"
b1000 F"
b1000 a"
b11100010100000000010000000000101 '
b11100010100000000010000000000101 -
b11100010100000000010000000000101 #"
b11100010100000000010000000000101 I"
b11100010100000000010000000000101 O"
b11100010100000000010000000000101 w"
0=
01
b10011110000000000001111 M"
b1111 Z"
b1111 U"
b11100000010011110000 8
b1000 ?"
b100 !"
b100 C"
b100 n"
b100 #
b100 (
b100 3
b100 ,"
b100 7"
b100 v"
b101100 u
b110 v
b100 ."
b100 H"
b100 _"
bx !
bx &
bx )
bx }
bx 6"
bx p"
bx x"
bx 0"
bx 3"
bx l"
b11100000010011110000000000001111 +"
b11100000010011110000000000001111 K"
b11100000010011110000000000001111 `"
b11100000010011110000000000001111 /
b11100000010011110000000000001111 )"
b11100000010011110000000000001111 Q"
b100 ("
b100 9"
b100 T"
b100 m"
b1 w
1$
#35
0$
#40
b1 S
b10 W
1>"
b110 6
b110 B
b110 J
b110 /"
b110 D"
1<"
b11111111111111111111111111110111 A"
b1000 ~
b1000 B"
b1000 t"
b0 -"
b0 E"
b0 F"
b0 a"
b100000000000000000000000000000000 ?"
b1000 !"
b1000 C"
b1000 n"
b1 7
b1 C
b1 d
b1 x
b1 ;"
b0 *
b0 9
b0 _
b0 h
b0 |
b0 b"
05
b0 4
b0 A
b0 b
b0 i
b0 y
b0 s"
1c
b1 u
b1000 v
b110 w
1F
b11100010100000000010000000000101 +"
b11100010100000000010000000000101 K"
b11100010100000000010000000000101 `"
b1000 0"
b1000 3"
b1000 l"
b1000 !
b1000 &
b1000 )
b1000 }
b1000 6"
b1000 p"
b1000 x"
b1000 ."
b1000 H"
b1000 _"
1$
#45
0$
#50
b0 W
0="
0<"
0@"
b0 S
b1000 A"
b0 6
b0 B
b0 J
b0 /"
b0 D"
0>"
b10000 -"
b10000 E"
b10000 F"
b10000 a"
b10000 ?"
b0 %"
b0 1"
b0 k"
b0 $"
b0 4"
b0 j"
1+
b0 7
b0 C
b0 d
b0 x
b0 ;"
b0 ""
b0 8"
b0 R"
b0 c"
b0 e"
b0 i"
1:
0c
b100000000 u
b0 v
b0 ."
b0 H"
b0 _"
b1000 w
1$
#55
0$
#60
1.
0+
b100 A"
b1000 %"
b1000 1"
b1000 k"
b1000 $"
b1000 4"
b1000 j"
1=
0:
11
b10 *
b10 9
b10 _
b10 h
b10 |
b10 b"
15
b10 4
b10 A
b10 b
b10 i
b10 y
b10 s"
b1000 -"
b1000 E"
b1000 F"
b1000 a"
b100 ~
b100 B"
b100 t"
b1000 ""
b1000 8"
b1000 R"
b1000 c"
b1000 e"
b1000 i"
b100010101100 u
b1 v
b1000 ?"
b100 !"
b100 C"
b100 n"
b0 w
b0 0"
b0 3"
b0 l"
b0 !
b0 &
b0 )
b0 }
b0 6"
b0 p"
b0 x"
b10000 ."
b10000 H"
b10000 _"
1$
#65
0$
#70
bx $"
bx 4"
bx j"
b0 %"
b0 1"
b0 k"
b1100 ""
b1100 8"
b1100 R"
b1100 c"
b1100 e"
b1100 i"
0.
b101 *"
b101 N"
b101 q"
b101 &"
b101 ]"
b101 g"
b0 '"
b0 X"
b0 f"
b101000 [
b101000 f
b10 ^
b1100 -"
b1100 E"
b1100 F"
b1100 a"
b11100010100000000011000000001100 '
b11100010100000000011000000001100 -
b11100010100000000011000000001100 #"
b11100010100000000011000000001100 I"
b11100010100000000011000000001100 O"
b11100010100000000011000000001100 w"
0=
01
b10 h"
b100000000010000000000101 M"
b10 ["
b101 Z"
b0 U"
b11100010100000000010 8
b1100 ?"
b1000 !"
b1000 C"
b1000 n"
b1000 #
b1000 (
b1000 3
b1000 ,"
b1000 7"
b1000 v"
b101100 u
b111 v
b1000 ."
b1000 H"
b1000 _"
b1000 !
b1000 &
b1000 )
b1000 }
b1000 6"
b1000 p"
b1000 x"
b1000 0"
b1000 3"
b1000 l"
b11100010100000000010000000000101 /
b11100010100000000010000000000101 )"
b11100010100000000010000000000101 Q"
b1000 ("
b1000 9"
b1000 T"
b1000 m"
b1 w
1$
#75
0$
#80
b101 A"
b101 -"
b101 E"
b101 F"
b101 a"
b101 ~
b101 B"
b101 t"
b101 ?"
b0 !"
b0 C"
b0 n"
b0 *
b0 9
b0 _
b0 h
b0 |
b0 b"
05
b1 4
b1 A
b1 b
b1 i
b1 y
b1 s"
1c
b11 u
b1000 v
b111 w
b11100010100000000011000000001100 +"
b11100010100000000011000000001100 K"
b11100010100000000011000000001100 `"
b0 0"
b0 3"
b0 l"
bx !
bx &
bx )
bx }
bx 6"
bx p"
bx x"
b1100 ."
b1100 H"
b1100 _"
1$
#85
0$
#90
bx W
x="
x<"
x@"
bx S
bx 6
bx B
bx J
bx /"
bx D"
x>"
bx -"
bx E"
bx F"
bx a"
bx ?"
bx A"
bx ~
bx B"
bx t"
1+
b101 ""
b101 8"
b101 R"
b101 c"
b101 e"
b101 i"
1:
b0 4
b0 A
b0 b
b0 i
b0 y
b0 s"
0c
b100000000 u
b0 v
b101 ."
b101 H"
b101 _"
b1000 w
1$
#95
0$
#100
b0 W
0="
0<"
0@"
b0 S
b0 6
b0 B
b0 J
b0 /"
b0 D"
0>"
b1100 -"
b1100 E"
b1100 F"
b1100 a"
b1100 ?"
b100 A"
b100 ~
b100 B"
b100 t"
1.
0+
b1000 !"
b1000 C"
b1000 n"
1=
0:
11
b10 *
b10 9
b10 _
b10 h
b10 |
b10 b"
15
b10 4
b10 A
b10 b
b10 i
b10 y
b10 s"
b1100 ""
b1100 8"
b1100 R"
b1100 c"
b1100 e"
b1100 i"
b100010101100 u
b1 v
b0 w
bx ."
bx H"
bx _"
1$
#105
0$
#110
b10000 ""
b10000 8"
b10000 R"
b10000 c"
b10000 e"
b10000 i"
0.
b1100 *"
b1100 N"
b1100 q"
b1100 &"
b1100 ]"
b1100 g"
b11 ^
b10000 -"
b10000 E"
b10000 F"
b10000 a"
b11100010010000110111000000001001 '
b11100010010000110111000000001001 -
b11100010010000110111000000001001 #"
b11100010010000110111000000001001 I"
b11100010010000110111000000001001 O"
b11100010010000110111000000001001 w"
0=
01
b11 h"
b100000000011000000001100 M"
b11 ["
b1100 Z"
b11100010100000000011 8
b10000 ?"
b1100 !"
b1100 C"
b1100 n"
b1100 #
b1100 (
b1100 3
b1100 ,"
b1100 7"
b1100 v"
b101100 u
b111 v
b1100 ."
b1100 H"
b1100 _"
b11100010100000000011000000001100 /
b11100010100000000011000000001100 )"
b11100010100000000011000000001100 Q"
b1100 ("
b1100 9"
b1100 T"
b1100 m"
b1 w
1$
#115
0$
#120
b1100 A"
b1100 -"
b1100 E"
b1100 F"
b1100 a"
b1100 ~
b1100 B"
b1100 t"
b1100 ?"
b0 !"
b0 C"
b0 n"
b0 *
b0 9
b0 _
b0 h
b0 |
b0 b"
05
b1 4
b1 A
b1 b
b1 i
b1 y
b1 s"
1c
b11 u
b1000 v
b111 w
b11100010010000110111000000001001 +"
b11100010010000110111000000001001 K"
b11100010010000110111000000001001 `"
b10000 ."
b10000 H"
b10000 _"
1$
#125
0$
#130
bx W
x="
x<"
x@"
bx S
bx 6
bx B
bx J
bx /"
bx D"
x>"
bx -"
bx E"
bx F"
bx a"
bx ?"
bx A"
bx ~
bx B"
bx t"
1+
b1100 ""
b1100 8"
b1100 R"
b1100 c"
b1100 e"
b1100 i"
1:
b0 4
b0 A
b0 b
b0 i
b0 y
b0 s"
0c
b100000000 u
b0 v
b1100 ."
b1100 H"
b1100 _"
b1000 w
1$
#135
0$
#140
b0 W
0="
0<"
0@"
b0 S
b0 6
b0 B
b0 J
b0 /"
b0 D"
0>"
b10000 -"
b10000 E"
b10000 F"
b10000 a"
b10000 ?"
b100 A"
b100 ~
b100 B"
b100 t"
1.
0+
b1100 !"
b1100 C"
b1100 n"
1=
0:
11
b10 *
b10 9
b10 _
b10 h
b10 |
b10 b"
15
b10 4
b10 A
b10 b
b10 i
b10 y
b10 s"
b10000 ""
b10000 8"
b10000 R"
b10000 c"
b10000 e"
b10000 i"
b100010101100 u
b1 v
b0 w
bx ."
bx H"
bx _"
1$
#145
0$
#150
b1100 %"
b1100 1"
b1100 k"
b10100 ""
b10100 8"
b10100 R"
b10100 c"
b10100 e"
b10100 i"
0.
b1001 *"
b1001 N"
b1001 q"
b1001 &"
b1001 ]"
b1001 g"
b11 '"
b11 X"
b11 f"
b100100 [
b100100 f
b111 ^
b10100 -"
b10100 E"
b10100 F"
b10100 a"
b11100001100001110100000000000010 '
b11100001100001110100000000000010 -
b11100001100001110100000000000010 #"
b11100001100001110100000000000010 I"
b11100001100001110100000000000010 O"
b11100001100001110100000000000010 w"
0=
01
b111 h"
b10000110111000000001001 M"
b111 ["
b1001 Z"
b11 U"
b11100010010000110111 8
b10100 ?"
b10000 !"
b10000 C"
b10000 n"
b10000 #
b10000 (
b10000 3
b10000 ,"
b10000 7"
b10000 v"
b101100 u
b111 v
b10000 ."
b10000 H"
b10000 _"
b11100010010000110111000000001001 /
b11100010010000110111000000001001 )"
b11100010010000110111000000001001 Q"
b10000 ("
b10000 9"
b10000 T"
b10000 m"
b1 w
1$
#155
0$
#160
b10 W
b10 6
b10 B
b10 J
b10 /"
b10 D"
1<"
b11111111111111111111111111110110 A"
b1001 ~
b1001 B"
b1001 t"
b11 -"
b11 E"
b11 F"
b11 a"
b100000000000000000000000000000011 ?"
b1100 !"
b1100 C"
b1100 n"
b1 7
b1 C
b1 d
b1 x
b1 ;"
b0 *
b0 9
b0 _
b0 h
b0 |
b0 b"
05
b1 4
b1 A
b1 b
b1 i
b1 y
b1 s"
1c
b11 u
b1000 v
b111 w
b11100001100001110100000000000010 +"
b11100001100001110100000000000010 K"
b11100001100001110100000000000010 `"
b1100 0"
b1100 3"
b1100 l"
b10100 ."
b10100 H"
b10100 _"
1$
#165
0$
#170
x="
x@"
bx S
bx W
x>"
bx 6
bx B
bx J
bx /"
bx D"
x<"
bx ~
bx B"
bx t"
bx A"
bx -"
bx E"
bx F"
bx a"
bx ?"
1+
b0 7
b0 C
b0 d
b0 x
b0 ;"
b11 ""
b11 8"
b11 R"
b11 c"
b11 e"
b11 i"
1:
b0 4
b0 A
b0 b
b0 i
b0 y
b0 s"
0c
b100000000 u
b0 v
b11 ."
b11 H"
b11 _"
b1000 w
1$
#175
0$
#180
b0 W
0="
0<"
0@"
b0 S
b0 6
b0 B
b0 J
b0 /"
b0 D"
0>"
b10100 -"
b10100 E"
b10100 F"
b10100 a"
b10100 ?"
b100 A"
b100 ~
b100 B"
b100 t"
1.
0+
b10000 !"
b10000 C"
b10000 n"
1=
0:
11
b10 *
b10 9
b10 _
b10 h
b10 |
b10 b"
15
b10 4
b10 A
b10 b
b10 i
b10 y
b10 s"
b10100 ""
b10100 8"
b10100 R"
b10100 c"
b10100 e"
b10100 i"
b100010101100 u
b1 v
b0 w
bx ."
bx H"
bx _"
1$
#185
0$
#190
b101 $"
b101 4"
b101 j"
b11 %"
b11 1"
b11 k"
b11000 ""
b11000 8"
b11000 R"
b11000 c"
b11000 e"
b11000 i"
0.
b10 *"
b10 N"
b10 q"
b10 &"
b10 ]"
b10 g"
b111 '"
b111 X"
b111 f"
b11000 [
b11000 f
b100 ^
b11000 -"
b11000 E"
b11000 F"
b11000 a"
b11100000000000110101000000000100 '
b11100000000000110101000000000100 -
b11100000000000110101000000000100 #"
b11100000000000110101000000000100 I"
b11100000000000110101000000000100 O"
b11100000000000110101000000000100 w"
0=
01
b100 h"
b100001110100000000000010 M"
b100 ["
b10 Z"
b111 U"
b11100001100001110100 8
b11000 ?"
b10100 !"
b10100 C"
b10100 n"
b10100 #
b10100 (
b10100 3
b10100 ,"
b10100 7"
b10100 v"
b101100 u
b110 v
b10100 ."
b10100 H"
b10100 _"
b11100001100001110100000000000010 /
b11100001100001110100000000000010 )"
b11100001100001110100000000000010 Q"
b10100 ("
b10100 9"
b10100 T"
b10100 m"
b1 w
1$
#195
0$
#200
b11111111111111111111111111111010 A"
b101 ~
b101 B"
b101 t"
b111 -"
b111 E"
b111 F"
b111 a"
b11111111111111111111111111111110 ?"
b11 !"
b11 C"
b11 n"
b11 7
b11 C
b11 d
b11 x
b11 ;"
b0 *
b0 9
b0 _
b0 h
b0 |
b0 b"
05
b0 4
b0 A
b0 b
b0 i
b0 y
b0 s"
1c
b1 u
b1000 v
b110 w
b11100000000000110101000000000100 +"
b11100000000000110101000000000100 K"
b11100000000000110101000000000100 `"
b11 0"
b11 3"
b11 l"
b101 !
b101 &
b101 )
b101 }
b101 6"
b101 p"
b101 x"
b11000 ."
b11000 H"
b11000 _"
1$
#205
0$
#210
b0 W
0="
b0 S
b0 6
b0 B
b0 J
b0 /"
b0 D"
0@"
b101 A"
b1000 -"
b1000 E"
b1000 F"
b1000 a"
b1000 ?"
1+
b0 7
b0 C
b0 d
b0 x
b0 ;"
b111 ""
b111 8"
b111 R"
b111 c"
b111 e"
b111 i"
1:
0c
b100000000 u
b0 v
b111 ."
b111 H"
b111 _"
b1000 w
1$
#215
0$
#220
b100 A"
b11000 -"
b11000 E"
b11000 F"
b11000 a"
b100 ~
b100 B"
b100 t"
1.
0+
b11000 ?"
b10100 !"
b10100 C"
b10100 n"
1=
0:
11
b10 *
b10 9
b10 _
b10 h
b10 |
b10 b"
15
b10 4
b10 A
b10 b
b10 i
b10 y
b10 s"
b11000 ""
b11000 8"
b11000 R"
b11000 c"
b11000 e"
b11000 i"
b100010101100 u
b1 v
b0 w
b1000 ."
b1000 H"
b1000 _"
1$
#225
0$
#230
b111 $"
b111 4"
b111 j"
b1100 %"
b1100 1"
b1100 k"
b11100 ""
b11100 8"
b11100 R"
b11100 c"
b11100 e"
b11100 i"
0.
b100 *"
b100 N"
b100 q"
b100 &"
b100 ]"
b100 g"
b11 '"
b11 X"
b11 f"
b0 [
b0 f
b101 ^
b11100 -"
b11100 E"
b11100 F"
b11100 a"
b11100000100001010101000000000100 '
b11100000100001010101000000000100 -
b11100000100001010101000000000100 #"
b11100000100001010101000000000100 I"
b11100000100001010101000000000100 O"
b11100000100001010101000000000100 w"
0=
01
b101 h"
b110101000000000100 M"
b101 ["
b100 Z"
b11 U"
b11100000000000110101 8
b11100 ?"
b11000 !"
b11000 C"
b11000 n"
b11000 #
b11000 (
b11000 3
b11000 ,"
b11000 7"
b11000 v"
b101100 u
b110 v
b11000 ."
b11000 H"
b11000 _"
b11100000000000110101000000000100 /
b11100000000000110101000000000100 )"
b11100000000000110101000000000100 Q"
b11000 ("
b11000 9"
b11000 T"
b11000 m"
b1 w
1$
#235
0$
#240
b111 A"
b111 ~
b111 B"
b111 t"
b100 -"
b100 E"
b100 F"
b100 a"
b10011 ?"
b1100 !"
b1100 C"
b1100 n"
b10 7
b10 C
b10 d
b10 x
b10 ;"
b0 *
b0 9
b0 _
b0 h
b0 |
b0 b"
05
b0 4
b0 A
b0 b
b0 i
b0 y
b0 s"
1c
b1 u
b1000 v
b110 w
b11100000100001010101000000000100 +"
b11100000100001010101000000000100 K"
b11100000100001010101000000000100 `"
b1100 0"
b1100 3"
b1100 l"
b111 !
b111 &
b111 )
b111 }
b111 6"
b111 p"
b111 x"
b11100 ."
b11100 H"
b11100 _"
1$
#245
0$
#250
b10011 -"
b10011 E"
b10011 F"
b10011 a"
1+
b0 7
b0 C
b0 d
b0 x
b0 ;"
b100 ""
b100 8"
b100 R"
b100 c"
b100 e"
b100 i"
1:
0c
b100000000 u
b0 v
b100 ."
b100 H"
b100 _"
b1000 w
1$
#255
0$
#260
b100 A"
b11100 -"
b11100 E"
b11100 F"
b11100 a"
b100 ~
b100 B"
b100 t"
1.
0+
b11100 ?"
b11000 !"
b11000 C"
b11000 n"
1=
0:
11
b10 *
b10 9
b10 _
b10 h
b10 |
b10 b"
15
b10 4
b10 A
b10 b
b10 i
b10 y
b10 s"
b11100 ""
b11100 8"
b11100 R"
b11100 c"
b11100 e"
b11100 i"
b100010101100 u
b1 v
b0 w
b10011 ."
b10011 H"
b10011 _"
1$
#265
0$
#270
b100 %"
b100 1"
b100 k"
b100000 ""
b100000 8"
b100000 R"
b100000 c"
b100000 e"
b100000 i"
0.
b101 '"
b101 X"
b101 f"
b1000 [
b1000 f
b100000 -"
b100000 E"
b100000 F"
b100000 a"
b11100000010101011000000000000111 '
b11100000010101011000000000000111 -
b11100000010101011000000000000111 #"
b11100000010101011000000000000111 I"
b11100000010101011000000000000111 O"
b11100000010101011000000000000111 w"
0=
01
b100001010101000000000100 M"
b101 U"
b11100000100001010101 8
b100000 ?"
b11100 !"
b11100 C"
b11100 n"
b11100 #
b11100 (
b11100 3
b11100 ,"
b11100 7"
b11100 v"
b101100 u
b110 v
b11100 ."
b11100 H"
b11100 _"
b11100000100001010101000000000100 /
b11100000100001010101000000000100 )"
b11100000100001010101000000000100 Q"
b11100 ("
b11100 9"
b11100 T"
b11100 m"
b1 w
1$
#275
0$
